…
10-fold cross validation repeated 5 times (stratified by the outcome variable) from the training data for model selection.


```r
# 10-fold cross-validation
set.seed(1234)
cv_samples <- vfold_cv(data = train_data, v = 10, repeats = 5, strata = "ecthr_label")

cv_samples
```

```
#  10-fold cross-validation repeated 5 times using stratification 
# A tibble: 50 x 3
   splits             id      id2   
   <list>             <chr>   <chr> 
 1 <split [2.7K/301]> Repeat1 Fold01
 2 <split [2.7K/301]> Repeat1 Fold02
 3 <split [2.7K/301]> Repeat1 Fold03
 4 <split [2.7K/301]> Repeat1 Fold04
 5 <split [2.7K/301]> Repeat1 Fold05
 6 <split [2.7K/301]> Repeat1 Fold06
 7 <split [2.7K/300]> Repeat1 Fold07
 8 <split [2.7K/300]> Repeat1 Fold08
 9 <split [2.7K/300]> Repeat1 Fold09
10 <split [2.7K/300]> Repeat1 Fold10
# … with 40 more rows
```
…
